COE838_Lab1/alu/trace_file.vcd
$date
     Jan 24, 2024       09:36:56
$end

$version
 SystemC 2.3.3-Accellera --- Jan 19 2024 18:36:00
$end

$timescale
     1 ns
$end

$scope module SystemC $end
$var wire    1  aaaaa  clk       $end
$var wire    1  aaaab  op       $end
$var wire    8  aaaac  a_in [7:0]  $end
$var wire    8  aaaad  b_in [7:0]  $end
$var wire    1  aaaae  enable       $end
$var wire    1  aaaaf  left0_right1       $end
$var wire    4  aaaag  shift_amt [3:0]  $end
$var wire    8  aaaah  alu_out [7:0]  $end
$upscope $end
$enddefinitions  $end

$comment
All initial values are dumped below at time 0 sec = 0 timescale units.
$end

$dumpvars
1aaaaa
0aaaab
b0 aaaac
b10 aaaad
1aaaae
0aaaaf
b1 aaaag
b0 aaaah
$end

#5
0aaaaa
b11111100 aaaah

#10
1aaaaa
1aaaab
b10 aaaac
b11 aaaad

#15
0aaaaa
b1000 aaaah

#20
1aaaaa
0aaaab
b1001 aaaac
b1000 aaaad
1aaaaf
b10 aaaag

#25
0aaaaa
b111 aaaah

#30
1aaaaa
0aaaae

#35
0aaaaa
b1 aaaah

#40
1aaaaa
1aaaae
b0 aaaag

